{
	"name": "<%= slugName %>",
	"version": "1.0.0",
	"author": "<%= projectAuthor %>",
	"description": "<%= projectDescription %>",
	"repository": {
		"type": "git",
		"url": "https://bitbucket.org/bluegg/<%= slugName %>"
	},
	"dependencies": {
		"bluegg-nav": "0.0.4",
		"bluegg-validation": "1.1.2",
		"fontfaceobserver": "^2.0.13"
	},
	"devDependencies": {
		"autoprefixer": "^6.3.3",
		"babel-preset-es2015": "^6.5.0",
		"babelify": "^7.2.0",
		"bluegg-kss-builder": "0.0.3",
		"cssnano": "^3.10.0",
		"grunt": "~1.0.1",
		"grunt-bower": "^0.21.4",
		"grunt-browser-sync": "^2.0.0",
		"grunt-browserify": "^5.0.0",
		"grunt-cache-busting": "0.0.11",
		"grunt-contrib-copy": "~1.0.0",
		"grunt-contrib-imagemin": "^1.0.1",
		"grunt-contrib-uglify": "^2.2.0",
		"grunt-exorcise": "^2.1.1",
		"grunt-contrib-watch": "~1.0.0",
		"grunt-cssnano": "^2.0.1",
		"grunt-cwebp": "^2.1.1",
		"grunt-dev-update": "^2.2.0",
		"grunt-exec": "^3.0.0",
		"grunt-favicons": "^0.8.0",
		"grunt-file-regex-rename": "~1.0.0",
		"grunt-http": "^2.2.0",
		"grunt-include-replace": "^5.0.0",
		"grunt-kss": "^5.0.1",
		"grunt-modernizr": "^1.0.0",
		"grunt-newer": "^1.1.2",
		"grunt-postcss": "^0.8.0",
		"grunt-rename": "~0.1.2",
		"grunt-sass": "^2.0.0",
		"grunt-sass-globbing": "^1.0.3",
		"grunt-svg-css": "^0.2.8",
		"grunt-svgmin": "^4.0.0",
		"grunt-twig-render": "^1.8.1",
		"load-grunt-configs": "^1.0.0",
		"load-grunt-tasks": "^3.1.0",
		"matchdep": "~1.0.1",
		"minifyify": "^7.3.1"
	}
}
